[
 {
  "pattern": "d1 $ s \"bd\" #sirenChan 0\n",
  "timestamp": 1543794521548,
  "type": "Tidal"
 },
 {
  "pattern": "d2 $ s \"sn\"\n",
  "timestamp": 1543794523054,
  "type": "Tidal"
 },
 {
  "pattern": "d1 $silence\n",
  "timestamp": 1543794525545,
  "type": "Tidal"
 },
 {
  "pattern": "d3 $ s \"hh*2\"\n",
  "timestamp": 1543794526462,
  "type": "Tidal"
 },
 {
  "pattern": "d1 $ s \"bd\" #sirenChan 0\n",
  "timestamp": 1543794528779,
  "type": "Tidal"
 },
 {
  "pattern": "d3 $ n (run 5) #s \"zone\"\n",
  "timestamp": 1543794530623,
  "type": "Tidal"
 },
 {
  "pattern": "d3 $ silence\n",
  "timestamp": 1543794531990,
  "type": "Tidal"
 },
 {
  "pattern": "hush\n",
  "timestamp": 1543794533017,
  "type": "Tidal"
 },
 {
  "pattern": "d1 $ silence\n",
  "timestamp": 1543794533660,
  "type": "Tidal"
 },
 {
  "pattern": "d2 $ silence\n",
  "timestamp": 1543794534343,
  "type": "Tidal"
 }
]
