{
 "layouts": [
  {
   "w": 18,
   "h": 16,
   "x": 2,
   "y": 2,
   "i": "tracker",
   "moved": false,
   "static": false,
   "isVisible": true
  },
  {
   "w": 4,
   "h": 16,
   "x": 20,
   "y": 2,
   "i": "patterns",
   "moved": false,
   "static": false,
   "isVisible": true
  },
  {
   "w": 14,
   "h": 4,
   "x": 0,
   "y": 18,
   "i": "tidal_history",
   "moved": false,
   "static": false,
   "isVisible": true
  },
  {
   "w": 10,
   "h": 4,
   "x": 14,
   "y": 18,
   "i": "tidal_console",
   "moved": false,
   "static": false,
   "isVisible": true
  },
  {
   "w": 2,
   "h": 16,
   "x": 0,
   "y": 2,
   "i": "scenes",
   "moved": false,
   "static": false,
   "isVisible": true
  },
  {
   "w": 10,
   "h": 9,
   "x": 0,
   "y": 22,
   "i": "tidal_globals",
   "moved": false,
   "static": false,
   "isVisible": true
  },
  {
   "w": 24,
   "h": 2,
   "x": 0,
   "y": 0,
   "i": "tidal_roll",
   "moved": false,
   "static": false,
   "isVisible": true
  },
  {
   "w": 14,
   "h": 9,
   "x": 10,
   "y": 22,
   "i": "controller",
   "moved": false,
   "static": false,
   "isVisible": true
  },
  {
   "w": 21,
   "h": 6,
   "x": 3,
   "y": 20,
   "i": "playback",
   "moved": false,
   "static": false,
   "isVisible": false
  },
  {
   "w": 14,
   "h": 8,
   "x": 0,
   "y": 21,
   "i": "tidal_log",
   "moved": false,
   "static": false,
   "isVisible": false
  },
  {
   "w": 10,
   "h": 18,
   "x": 14,
   "y": 18,
   "i": "sc_console",
   "moved": false,
   "static": false,
   "isVisible": false
  },
  {
   "w": 24,
   "h": 6,
   "x": 0,
   "y": 63,
   "i": "config_paths",
   "moved": false,
   "static": false,
   "isVisible": false
  }
 ],
 "customs": [
  [
   {
    "w": 18,
    "h": 16,
    "x": 2,
    "y": 2,
    "i": "tracker",
    "moved": false,
    "static": false,
    "isVisible": true
   },
   {
    "w": 4,
    "h": 16,
    "x": 20,
    "y": 2,
    "i": "patterns",
    "moved": false,
    "static": false,
    "isVisible": true
   },
   {
    "w": 14,
    "h": 4,
    "x": 0,
    "y": 18,
    "i": "tidal_history",
    "moved": false,
    "static": false,
    "isVisible": true
   },
   {
    "w": 10,
    "h": 4,
    "x": 14,
    "y": 18,
    "i": "tidal_console",
    "moved": false,
    "static": false,
    "isVisible": true
   },
   {
    "w": 2,
    "h": 16,
    "x": 0,
    "y": 2,
    "i": "scenes",
    "moved": false,
    "static": false,
    "isVisible": true
   },
   {
    "w": 10,
    "h": 9,
    "x": 0,
    "y": 22,
    "i": "tidal_globals",
    "moved": false,
    "static": false,
    "isVisible": true
   },
   {
    "w": 24,
    "h": 2,
    "x": 0,
    "y": 0,
    "i": "tidal_roll",
    "moved": false,
    "static": false,
    "isVisible": true
   },
   {
    "w": 14,
    "h": 9,
    "x": 10,
    "y": 22,
    "i": "controller",
    "moved": false,
    "static": false,
    "isVisible": true
   },
   {
    "w": 21,
    "h": 6,
    "x": 3,
    "y": 20,
    "i": "playback",
    "moved": false,
    "static": false,
    "isVisible": false
   },
   {
    "w": 14,
    "h": 8,
    "x": 0,
    "y": 21,
    "i": "tidal_log",
    "moved": false,
    "static": false,
    "isVisible": false
   },
   {
    "w": 10,
    "h": 18,
    "x": 14,
    "y": 18,
    "i": "sc_console",
    "moved": false,
    "static": false,
    "isVisible": false
   },
   {
    "w": 24,
    "h": 6,
    "x": 0,
    "y": 63,
    "i": "config_paths",
    "moved": false,
    "static": false,
    "isVisible": false
   }
  ],
  [
   {
    "w": 7,
    "h": 21,
    "x": 17,
    "y": 0,
    "i": "patterns",
    "moved": false,
    "static": false,
    "isVisible": true
   },
   {
    "w": 14,
    "h": 8,
    "x": 0,
    "y": 27,
    "i": "controller",
    "moved": false,
    "static": false,
    "isVisible": true
   },
   {
    "w": 17,
    "h": 5,
    "x": 0,
    "y": 16,
    "i": "tidal_log",
    "moved": false,
    "static": false,
    "isVisible": true
   },
   {
    "w": 17,
    "h": 16,
    "x": 0,
    "y": 0,
    "i": "tidal_console",
    "moved": false,
    "static": false,
    "isVisible": true
   },
   {
    "w": 10,
    "h": 18,
    "x": 14,
    "y": 21,
    "i": "sc_console",
    "moved": false,
    "static": false,
    "isVisible": true
   },
   {
    "w": 24,
    "h": 20,
    "x": 0,
    "y": 16,
    "i": "tracker",
    "moved": false,
    "static": false,
    "isVisible": false
   },
   {
    "w": 2,
    "h": 18,
    "x": 0,
    "y": 16,
    "i": "scenes",
    "moved": false,
    "static": false,
    "isVisible": false
   },
   {
    "w": 14,
    "h": 5,
    "x": 0,
    "y": 16,
    "i": "tidal_history",
    "moved": false,
    "static": false,
    "isVisible": false
   },
   {
    "w": 10,
    "h": 9,
    "x": 6,
    "y": 18,
    "i": "tidal_globals",
    "moved": false,
    "static": false,
    "isVisible": true
   },
   {
    "w": 24,
    "h": 6,
    "x": 0,
    "y": 63,
    "i": "config_paths",
    "moved": false,
    "static": false,
    "isVisible": false
   },
   {
    "w": 21,
    "h": 6,
    "x": 3,
    "y": 32,
    "i": "playback",
    "moved": false,
    "static": false,
    "isVisible": false
   },
   {
    "w": 14,
    "h": 8,
    "x": 0,
    "y": 12,
    "i": "tidal_roll",
    "moved": false,
    "static": false,
    "isVisible": false
   }
  ],
  [
   {
    "w": 24,
    "h": 20,
    "x": 0,
    "y": 0,
    "i": "sc_console",
    "moved": false,
    "static": false,
    "isVisible": true
   },
   {
    "w": 14,
    "h": 8,
    "x": 0,
    "y": 27,
    "i": "controller",
    "moved": false,
    "static": false,
    "isVisible": true
   },
   {
    "w": 17,
    "h": 5,
    "x": 0,
    "y": 0,
    "i": "tidal_log",
    "moved": false,
    "static": false,
    "isVisible": false
   },
   {
    "w": 17,
    "h": 16,
    "x": 0,
    "y": 0,
    "i": "tidal_console",
    "moved": false,
    "static": false,
    "isVisible": false
   },
   {
    "w": 7,
    "h": 21,
    "x": 17,
    "y": 0,
    "i": "patterns",
    "moved": false,
    "static": false,
    "isVisible": false
   },
   {
    "w": 2,
    "h": 18,
    "x": 0,
    "y": 16,
    "i": "scenes",
    "moved": false,
    "static": false,
    "isVisible": false
   },
   {
    "w": 14,
    "h": 5,
    "x": 0,
    "y": 16,
    "i": "tidal_history",
    "moved": false,
    "static": false,
    "isVisible": false
   },
   {
    "w": 15,
    "h": 18,
    "x": 2,
    "y": 0,
    "i": "tracker",
    "moved": false,
    "static": false,
    "isVisible": false
   },
   {
    "w": 10,
    "h": 9,
    "x": 6,
    "y": 18,
    "i": "tidal_globals",
    "moved": false,
    "static": false,
    "isVisible": false
   },
   {
    "w": 24,
    "h": 6,
    "x": 0,
    "y": 63,
    "i": "config_paths",
    "moved": false,
    "static": false,
    "isVisible": false
   },
   {
    "w": 21,
    "h": 6,
    "x": 3,
    "y": 32,
    "i": "playback",
    "moved": false,
    "static": false,
    "isVisible": false
   },
   {
    "w": 14,
    "h": 8,
    "x": 0,
    "y": 12,
    "i": "tidal_roll",
    "moved": false,
    "static": false,
    "isVisible": false
   }
  ],
  [
   {
    "w": 14,
    "h": 18,
    "x": 0,
    "y": 2,
    "i": "tracker",
    "moved": false,
    "static": false,
    "isVisible": true
   },
   {
    "w": 14,
    "h": 8,
    "x": 0,
    "y": 32,
    "i": "tidal_log",
    "moved": false,
    "static": false,
    "isVisible": true
   },
   {
    "w": 14,
    "h": 5,
    "x": 0,
    "y": 20,
    "i": "tidal_history",
    "moved": false,
    "static": false,
    "isVisible": true
   },
   {
    "w": 10,
    "h": 13,
    "x": 14,
    "y": 20,
    "i": "tidal_console",
    "moved": false,
    "static": false,
    "isVisible": true
   },
   {
    "w": 24,
    "h": 2,
    "x": 0,
    "y": 0,
    "i": "tidal_roll",
    "moved": false,
    "static": false,
    "isVisible": true
   },
   {
    "w": 14,
    "h": 7,
    "x": 0,
    "y": 25,
    "i": "tidal_globals",
    "moved": false,
    "static": false,
    "isVisible": true
   },
   {
    "w": 10,
    "h": 18,
    "x": 14,
    "y": 2,
    "i": "controller",
    "moved": false,
    "static": false,
    "isVisible": true
   },
   {
    "w": 7,
    "h": 18,
    "x": 17,
    "y": 2,
    "i": "patterns",
    "moved": false,
    "static": false,
    "isVisible": false
   },
   {
    "w": 2,
    "h": 18,
    "x": 0,
    "y": 2,
    "i": "scenes",
    "moved": false,
    "static": false,
    "isVisible": false
   },
   {
    "w": 10,
    "h": 18,
    "x": 14,
    "y": 18,
    "i": "sc_console",
    "moved": false,
    "static": false,
    "isVisible": false
   },
   {
    "w": 24,
    "h": 6,
    "x": 0,
    "y": 63,
    "i": "config_paths",
    "moved": false,
    "static": false,
    "isVisible": false
   },
   {
    "w": 21,
    "h": 6,
    "x": 3,
    "y": 32,
    "i": "playback",
    "moved": false,
    "static": false,
    "isVisible": false
   }
  ]
 ]
}
